module my

go 1.20

require github.com/denisenkom/go-mssqldb v0.12.3

require (
	github.com/golang-sql/civil v0.0.0-20190719163853-cb61b32ac6fe // indirect
	github.com/golang-sql/sqlexp v0.1.0 // indirect
)
